<svg width="20" height="11" viewBox="0 0 20 11" fill="none" xmlns="http://www.w3.org/2000/svg">
<rect width="20" height="11" fill="black" fill-opacity="0"/>
<rect width="20" height="11" fill="black" fill-opacity="0"/>
<path d="M0.795756 1.43478C1.23524 1.43478 1.59151 1.1136 1.59151 0.717391C1.59151 0.321187 1.23524 0 0.795756 0C0.356272 0 0 0.321187 0 0.717391C0 1.1136 0.356272 1.43478 0.795756 1.43478Z" fill="white"/>
<path d="M20.0002 0H3.979V1.43478H20.0002V0Z" fill="white"/>
<path d="M0.795756 11C1.23524 11 1.59151 10.6788 1.59151 10.2826C1.59151 9.8864 1.23524 9.56522 0.795756 9.56522C0.356272 9.56522 0 9.8864 0 10.2826C0 10.6788 0.356272 11 0.795756 11Z" fill="white"/>
<path d="M20.0002 9.56522H3.979V11H20.0002V9.56522Z" fill="white"/>
<path d="M0.795756 6.21739C1.23524 6.21739 1.59151 5.89621 1.59151 5.5C1.59151 5.1038 1.23524 4.78261 0.795756 4.78261C0.356272 4.78261 0 5.1038 0 5.5C0 5.89621 0.356272 6.21739 0.795756 6.21739Z" fill="white"/>
<path d="M20.0002 4.78261H3.979V6.21739H20.0002V4.78261Z" fill="white"/>
</svg>