<svg width="30" height="17" viewBox="0 0 30 17" fill="none" xmlns="http://www.w3.org/2000/svg">
<rect width="30" height="16.5" fill="black" fill-opacity="0"/>
<rect width="30" height="16.5" fill="black" fill-opacity="0"/>
<path d="M1.19363 2.15217C1.85286 2.15217 2.38727 1.67039 2.38727 1.07609C2.38727 0.481781 1.85286 0 1.19363 0C0.534408 0 0 0.481781 0 1.07609C0 1.67039 0.534408 2.15217 1.19363 2.15217Z" fill="black"/>
<path d="M30.0001 0H5.96826V2.15217H30.0001V0Z" fill="black"/>
<path d="M1.19363 16.5C1.85286 16.5 2.38727 16.0182 2.38727 15.4239C2.38727 14.8296 1.85286 14.3478 1.19363 14.3478C0.534408 14.3478 0 14.8296 0 15.4239C0 16.0182 0.534408 16.5 1.19363 16.5Z" fill="black"/>
<path d="M30.0001 14.3478H5.96826V16.5H30.0001V14.3478Z" fill="black"/>
<path d="M1.19363 9.32609C1.85286 9.32609 2.38727 8.84431 2.38727 8.25C2.38727 7.65569 1.85286 7.17391 1.19363 7.17391C0.534408 7.17391 0 7.65569 0 8.25C0 8.84431 0.534408 9.32609 1.19363 9.32609Z" fill="black"/>
<path d="M30.0001 7.17391H5.96826V9.32609H30.0001V7.17391Z" fill="black"/>
</svg>