<svg width="30" height="30" viewBox="0 0 30 30" fill="none" xmlns="http://www.w3.org/2000/svg">
<path d="M4.14908 0.351044C4.0518 0.286394 3.95211 0.216306 3.84758 0.145614C3.54366 0.0525661 3.22102 0.00422898 2.89052 -4.51753e-07H2.85064C1.33167 -4.51753e-07 2.25876e-07 0.918996 2.25876e-07 1.9679C2.25876e-07 3.10984 1.14134 4.00226 2.59748 4.00226C4.51825 4.00226 5.49162 3.33884 5.49162 2.03376C5.49162 1.9105 5.47712 1.78241 5.44631 1.65371C5.3164 1.14739 4.85177 0.831387 4.14908 0.351044Z" transform="translate(8.84131 17.1348)" fill="#FF6600"/>
<path d="M2.14375 4.72428C2.14496 4.72428 2.14496 4.72428 2.14496 4.72428C2.50809 4.72428 2.81442 4.58108 3.05187 4.30919C3.42406 3.88504 3.58901 3.189 3.49113 2.45005C3.31893 1.12926 2.37456 0.029606 1.3891 0.00120832L1.34983 -4.60972e-09C1.0012 -4.60972e-09 0.690033 0.143801 0.453789 0.414485C0.0870364 0.833199 -0.0682454 1.49662 0.0278232 2.23435C0.200626 3.55394 1.16494 4.69407 2.12985 4.72428H2.14375Z" transform="translate(9.77051 8.78125)" fill="#FF6600"/>
<path d="M15 0C6.72903 0 0 6.72903 0 15C0 23.2704 6.72903 30 15 30C23.2704 30 30 23.2704 30 15C30 6.72903 23.2716 0 15 0ZM13.2708 22.3042C12.704 22.468 12.0908 22.5508 11.4473 22.5508C10.7307 22.5508 10.0419 22.4686 9.39962 22.306C8.15677 21.9925 7.23838 21.3979 6.80939 20.6318C6.62451 20.3007 6.53085 19.9478 6.53085 19.5823C6.53085 19.2059 6.62088 18.824 6.79852 18.4458C7.47946 16.9945 9.27455 16.0181 11.263 16.0181C11.2829 16.0181 11.3017 16.0181 11.3198 16.0181C11.1585 15.7335 11.0805 15.4387 11.0805 15.1287C11.0805 14.9746 11.1011 14.8175 11.1421 14.6574C9.05643 14.6103 7.49577 13.0829 7.49577 11.069C7.49577 9.64735 8.63228 8.2619 10.2576 7.70241C10.744 7.53444 11.24 7.44864 11.7276 7.44864H16.1879C16.3395 7.44864 16.4743 7.54713 16.5214 7.69153C16.5685 7.83533 16.5166 7.99364 16.3939 8.08245L15.3964 8.80448C15.3365 8.84677 15.2646 8.86973 15.1903 8.86973H14.8332C15.2942 9.42258 15.5643 10.2111 15.5643 11.0962C15.5643 12.0732 15.0701 12.9971 14.1704 13.701C13.4756 14.2423 13.4484 14.3916 13.4484 14.7003C13.4569 14.8701 13.9408 15.4242 14.4749 15.8018C15.719 16.6815 16.1818 17.5449 16.1818 18.9853C16.1812 20.4904 15.0387 21.7907 13.2708 22.3042ZM23.3435 14.6538C23.3435 14.8471 23.1858 15.0042 22.993 15.0042H20.4584V17.5401C20.4584 17.7334 20.3007 17.8905 20.1092 17.8905H19.3871C19.1926 17.8905 19.0355 17.7334 19.0355 17.5401V15.0042H16.5027C16.3093 15.0042 16.1522 14.8483 16.1522 14.6538V13.933C16.1522 13.7396 16.3093 13.5813 16.5027 13.5813H19.0355V11.0479C19.0355 10.8539 19.1926 10.6975 19.3871 10.6975H20.1092C20.3007 10.6975 20.4584 10.8539 20.4584 11.0479V13.5813H22.9924C23.1852 13.5813 23.3429 13.7384 23.3429 13.9318V14.6538H23.3435Z" fill="#FF6600"/>
</svg>