<svg width="54" height="40" viewBox="0 0 54 40" fill="none" xmlns="http://www.w3.org/2000/svg">
<rect width="53.3336" height="40" fill="black" fill-opacity="0" transform="translate(53.3336 40) rotate(-180)"/>
<rect width="53.3336" height="40" fill="black" fill-opacity="0" transform="translate(53.3336 40) rotate(-180)"/>
<rect width="53.3336" height="40" fill="black" fill-opacity="0" transform="translate(53.3336 40) rotate(-180)"/>
<rect width="53.3336" height="40" fill="black" fill-opacity="0" transform="translate(53.3336 40) rotate(-180)"/>
<path d="M53.3336 40V20H40.0003C40.0003 12.65 45.977 6.66667 53.3336 6.66667V0C42.3053 0 33.3336 8.97167 33.3336 20V40H53.3336Z" fill="#7D7D7D"/>
<path d="M20 40L20 20H6.66667C6.66667 12.65 12.6433 6.66667 20 6.66667V0C8.97167 0 0 8.97167 0 20L0 40H20Z" fill="#7D7D7D"/>
</svg>